<?xml version="1.0" encoding="UTF-8" standalone="no"?>
<!-- Created with Inkscape (http://www.inkscape.org/) -->

<svg
   xmlns:dc="http://purl.org/dc/elements/1.1/"
   xmlns:cc="http://creativecommons.org/ns#"
   xmlns:rdf="http://www.w3.org/1999/02/22-rdf-syntax-ns#"
   xmlns:svg="http://www.w3.org/2000/svg"
   xmlns="http://www.w3.org/2000/svg"
   version="1.1"
   width="600"
   height="589.9068"
   viewBox="0 0 480 471.92544"
   id="svg126173">
  <metadata
     id="metadata126197">
    <rdf:RDF>
      <cc:Work
         rdf:about="">
        <dc:format>image/svg+xml</dc:format>
        <dc:type
           rdf:resource="http://purl.org/dc/dcmitype/StillImage" />
        <dc:title></dc:title>
      </cc:Work>
    </rdf:RDF>
  </metadata>
  <defs
     id="defs126195" />
  <g
     id="g126246">
    <path
       d="M 7.4840099,223.51279 C 81.940299,149.02452 156.3646,74.488272 230.82089,-6.8000025e-8 242.71855,12.089552 254.85607,23.923241 266.72175,36.028784 189.78678,113.09168 112.93177,190.26652 35.804905,267.15351 23.779319,255.38379 12.105545,243.24627 1.4449999e-6,231.54051 2.2228159,228.63006 4.8614086,226.07143 7.4840099,223.51279 z"
       id="path126177"
       style="fill:#ffffff" />
    <path
       d="m 236.22601,97.148186 c 13.08102,-11.96162 30.73561,-18.885927 48.51812,-18.390191 24.22708,-0.255864 47.78252,12.985074 60.87953,33.246265 15.30384,22.78785 14.8241,55.01066 -1.37526,77.20682 -9.99467,14.16845 -22.43604,26.36994 -34.8774,38.34755 -8.01173,7.34009 -16.08742,15.20789 -26.36994,19.25373 -9.35501,3.58209 -19.54157,2.19083 -29.0565,0.14393 2.17484,10.28251 2.91045,21.52452 -1.48721,31.34328 -4.73347,10.60235 -13.16098,18.83795 -20.91684,27.23347 -12.28145,12.52133 -24.64286,25.02666 -38.15565,36.25267 -19.07782,16.24733 -47.55863,20.0533 -70.53838,10.41045 -23.571427,-10.47442 -41.65778,-33.18231 -45.46375,-58.83262 -2.942431,-17.76653 2.990405,-36.20469 13.896588,-50.24521 8.683369,-10.92217 19.349682,-20.02132 28.880592,-30.1759 12.50533,12.44136 24.93071,24.97868 37.37207,37.5 -6.58848,6.70042 -13.38486,13.20895 -19.94136,19.95735 -4.41365,4.73348 -7.85181,11.21002 -6.63646,17.86248 1.3113,6.9243 6.73241,12.53731 13.129,15.15991 7.69189,3.15032 15.97547,-1.24733 21.50852,-6.5565 12.24947,-12.29744 24.59489,-24.51493 36.79638,-36.87633 4.04584,-4.62154 8.47548,-10.21855 7.6919,-16.74307 -2.70256,-10.26653 -11.49787,-16.98295 -18.05437,-24.7548 11.28997,-10.97015 22.29211,-22.22815 33.43816,-33.34222 6.42857,6.68444 13.03305,13.81663 21.68444,17.55864 7.08422,3.16631 14.08848,-2.0629 19.14179,-6.5725 10.77825,-10.61833 21.41258,-21.38059 32.11087,-32.0629 3.67804,-3.5661 5.9968,-8.49147 6.09275,-13.64072 -0.41578,-13.22495 -16.29531,-24.51493 -28.44883,-17.17484 -9.83475,6.82836 -17.20682,16.61514 -26.0501,24.62686 -12.21749,-12.71322 -25.01066,-24.85074 -37.19616,-37.61194 7.96375,-7.54797 15.47974,-15.57569 23.4275,-23.123664 z"
       id="path126179"
       style="fill:#ffffff" />
    <path
       d="m 477.75,231.21875 c -8.9952,9.11515 -18.03239,18.20103 -27.1875,27.15625 27.0056,40.91817 54.05691,81.83181 81.0625,122.75 7.27612,-7.85581 15.13266,-15.17291 22.46875,-22.96875 -6.55651,-8.73535 -13.29598,-17.34968 -19.8125,-26.125 5.51705,-5.45709 11.07529,-10.90805 16.3125,-16.625 9.5549,5.617 17.95723,12.98855 26.8125,19.625 C 584.80231,327.33536 592.62394,320.04837 600,312.3125 559.16179,285.40685 518.4283,258.36427 477.75,231.21875 z m 0.875,28.65625 c 18.33022,14.41231 36.94256,28.48354 55.8125,42.15625 -4.51759,4.31769 -8.94104,8.69244 -13.21875,13.25 C 507.14625,296.71116 493.33716,277.94536 478.625,259.875 z"
       transform="scale(0.8,0.8)"
       id="path126181"
       style="fill:#ffffff" />
    <path
       d="m 326.22601,239.96801 c 6.17271,-4.28571 14.32836,-5.91684 21.52452,-3.40618 9.08316,3.51812 14.55224,12.04158 21.7484,18.10235 -4.92537,5.93283 -10.76226,11.03411 -16.05544,16.61513 -4.20575,-3.90191 -7.70789,-8.84328 -12.85714,-11.57782 -7.94776,-2.76653 -15.71962,7.67591 -9.80277,14.15245 12.80917,13.83262 26.56183,26.78571 39.7388,40.28252 3.29425,3.08635 6.89233,7.65991 11.99361,6.39658 4.1258,-1.90298 8.37953,-6.63646 6.14072,-11.4339 -2.8145,-6.09275 -8.47548,-10.10661 -12.96908,-14.87207 5.66098,-5.51705 11.13006,-11.242 16.79104,-16.74307 7.45203,8.12367 17.68657,14.98401 20.32516,26.33796 2.19084,10.4904 -4.22174,20.19723 -11.21002,27.3774 -7.02025,7.56396 -16.59914,14.47228 -27.42537,13.75266 -6.44456,-0.20789 -12.04158,-4.01386 -16.37527,-8.50746 -15.15991,-15.25587 -30.43177,-30.39979 -45.5597,-45.67164 -6.20469,-5.98081 -9.5629,-14.96802 -7.53198,-23.50747 2.92644,-11.62579 11.76972,-20.83688 21.52452,-27.29744 z"
       id="path126185"
       style="fill:#ffffff" />
    <path
       d="m 270.14392,297.52132 c 5.70896,-6.06077 11.68977,-11.86567 17.57463,-17.73454 26.9936,27.26545 54.33902,54.1791 81.22068,81.54051 -5.98081,5.62899 -11.75373,11.48187 -17.46269,17.39872 -27.26546,-26.91365 -54.14712,-54.22708 -81.33262,-81.20469 z"
       id="path126187"
       style="fill:#ffffff" />
    <path
       d="m 223.48081,343.97654 c 5.96482,-5.82089 11.67377,-11.89765 17.83049,-17.51066 19.17377,19.76546 38.92324,38.97122 58.25693,58.57676 2.6226,2.67057 5.14925,5.53305 8.41151,7.45202 6.9403,-7.53198 14.39233,-14.56823 21.54051,-21.89232 5.00533,5.02132 10.02666,10.02665 15.06397,15.01599 -13.28891,13.14499 -26.59382,26.28998 -39.61088,39.70682 -27.42537,-26.83368 -54.29104,-54.25906 -81.49253,-81.34861 z"
       id="path126189"
       style="fill:#ffffff" />
    <path
       d="m 199.55757,367.8678 c 5.77292,-5.54904 11.4339,-11.21002 16.93497,-17.03092 21.28464,21.0128 42.29744,42.29744 63.50213,63.40618 6.14072,6.02879 10.25053,14.90406 8.07569,23.60342 -2.92644,10.36247 -10.74627,18.26226 -18.50213,25.28251 -5.94883,5.0693 -13.43284,9.51493 -21.54051,8.69936 -6.09275,-0.46375 -11.36994,-4.10981 -15.78359,-8.07569 -21.42857,-21.31663 -42.64925,-42.85714 -64.20575,-64.06183 5.74094,-6.04478 11.8177,-11.73774 17.52665,-17.83049 19.66951,19.89339 39.45096,39.69083 59.2484,59.47228 3.03838,2.8145 6.5565,6.10874 11.00213,5.93283 4.25373,-0.89552 7.64393,-4.63752 8.65139,-8.8113 0.46375,-4.94136 -3.16631,-8.8113 -6.36461,-12.04158 -19.55757,-19.46162 -38.95522,-39.09914 -58.54477,-58.54477 z"
       id="path126191"
       style="fill:#ffffff" />
  </g>
</svg>
