<?xml version="1.0" encoding="UTF-8" standalone="no"?>
<svg
   xmlns:dc="http://purl.org/dc/elements/1.1/"
   xmlns:cc="http://creativecommons.org/ns#"
   xmlns:rdf="http://www.w3.org/1999/02/22-rdf-syntax-ns#"
   xmlns:svg="http://www.w3.org/2000/svg"
   xmlns="http://www.w3.org/2000/svg"
   xmlns:sodipodi="http://sodipodi.sourceforge.net/DTD/sodipodi-0.dtd"
   xmlns:inkscape="http://www.inkscape.org/namespaces/inkscape"
   width="600"
   height="281.39856"
   id="svg2"
   version="1.1"
   inkscape:version="0.48.4 r9939"
   sodipodi:docname="daserstehd.svg">
  <defs
     id="defs18" />
  <sodipodi:namedview
     pagecolor="#ffffff"
     bordercolor="#666666"
     borderopacity="1"
     objecttolerance="10"
     gridtolerance="10"
     guidetolerance="10"
     inkscape:pageopacity="0"
     inkscape:pageshadow="2"
     inkscape:window-width="1680"
     inkscape:window-height="964"
     id="namedview16"
     showgrid="false"
     inkscape:zoom="0.64"
     inkscape:cx="300"
     inkscape:cy="137.57428"
     inkscape:window-x="0"
     inkscape:window-y="27"
     inkscape:window-maximized="1"
     inkscape:current-layer="svg2" />
  <metadata
     id="metadata3300">image/svg+xml<rdf:RDF>
  <cc:Work
     rdf:about="">
    <dc:format>image/svg+xml</dc:format>
    <dc:type
       rdf:resource="http://purl.org/dc/dcmitype/StillImage" />
  </cc:Work>
</rdf:RDF>
</metadata>
  <g
     id="g5"
     style="fill:#ffffff">
    <title
       id="title7">Layer 1</title>
    <g
       id="layer1"
       style="fill:#ffffff">
      <g
         id="g3288"
         style="fill:#ffffff">
        <g
           fill="#003257"
           id="g3267"
           style="fill:#ffffff">
          <path
             fill="#b3b5b7"
             fill-rule="evenodd"
             id="path2481"
             d="m461.621399,55.595787l0,174.649315c0,0 31.293793,0 44.709351,0c81.130676,0 93.669312,-41.274155 93.669312,-87.934113c0,-42.13913 -13.147949,-86.715202 -93.669312,-86.715202c-13.415558,0 -44.709351,0 -44.709351,0zm44.709351,37.583359c0,0 8.731018,0 12.470459,0c28.592407,0 36.489563,27.059853 36.489502,50.428886c0,24.818451 -8.263611,50.835205 -34.348572,50.835205c-4.380432,0 -14.611389,0 -14.611389,0l0,-101.264091z"
             style="fill:#ffffff" />
          <path
             fill="#b3b5b7"
             id="rect2490"
             d="m312.350616,55.595787l0,174.649315l44.115509,0l0,-73.119553l51.897858,0l0,73.119553l44.115509,0l0,-174.649315l-44.115509,0l0,62.852501l-51.897858,0l0,-62.852501l-44.115509,0z"
             style="fill:#ffffff" />
        </g>
        <path
           fill="#b3b5b7"
           fill-rule="evenodd"
           id="path3277"
           d="m54.477703,106.538498l142.01128,-51.008595l0,140.605061l-94.875214,33.077118l0,-104.544563l-47.136066,16.493309l0,-34.62233l0,0z"
           style="fill:#ffffff" />
        <path
           fill="#b3b5b7"
           id="path3279"
           d="m140.707092,0.000002c-77.666824,0 -140.70709,63.04027 -140.70709,140.70709c0,77.666809 63.040266,140.691437 140.70709,140.691467c77.666824,0 140.707062,-63.024658 140.707062,-140.691467c0,-77.666821 -63.040237,-140.70709 -140.707062,-140.70709zm-0.453201,18.736984c67.160385,0 121.673203,54.512777 121.673203,121.673185c0,67.160416 -54.512787,121.657547 -121.673203,121.657547c-67.1604,0 -121.673182,-54.497147 -121.673182,-121.657547c0,-67.160408 54.512781,-121.673185 121.673182,-121.673185z"
           style="fill:#ffffff" />
      </g>
    </g>
  </g>
</svg>
